^C:\USERS\YURI\DOCUMENTS\SDL_PROJECT\SDL_PROJECT\DEBUG\MAIN.OBJ
/OUT:"C:\USERS\YURI\DOCUMENTS\SDL_PROJECT\DEBUG\SDL_PROJECT.EXE" /INCREMENTAL /NOLOGO /LIBPATH:C:\USERS\YURI\DOCUMENTS\SDL_PROJECT\DEPENDENCIES\SDL2\LIB\X86 /LIBPATH:C:\USERS\YURI\DOCUMENTS\SDL_PROJECT\DEPENDENCIES\GLEW\LIB\RELEASE\WIN32 OPENGL32.LIB GLEW32.LIB GLEW32S.LIB SDL2.LIB SDL2MAIN.LIB KERNEL32.LIB USER32.LIB GDI32.LIB WINSPOOL.LIB COMDLG32.LIB ADVAPI32.LIB SHELL32.LIB OLE32.LIB OLEAUT32.LIB UUID.LIB ODBC32.LIB ODBCCP32.LIB KERNEL32.LIB USER32.LIB GDI32.LIB WINSPOOL.LIB COMDLG32.LIB ADVAPI32.LIB SHELL32.LIB OLE32.LIB OLEAUT32.LIB UUID.LIB ODBC32.LIB ODBCCP32.LIB /MANIFEST /MANIFESTUAC:"level='asInvoker' uiAccess='false'" /manifest:embed /DEBUG:FASTLINK /PDB:"C:\USERS\YURI\DOCUMENTS\SDL_PROJECT\DEBUG\SDL_PROJECT.PDB" /SUBSYSTEM:CONSOLE /TLBID:1 /DYNAMICBASE /NXCOMPAT /IMPLIB:"C:\USERS\YURI\DOCUMENTS\SDL_PROJECT\DEBUG\SDL_PROJECT.LIB" /MACHINE:X86 DEBUG\MAIN.OBJ
^C:\USERS\YURI\DOCUMENTS\SDL_PROJECT\SDL_PROJECT\DEBUG\MAIN.OBJ|C:\USERS\YURI\DOCUMENTS\SDL_PROJECT\SDL_PROJECT\DEBUG\MAINGAME.OBJ|C:\USERS\YURI\DOCUMENTS\SDL_PROJECT\SDL_PROJECT\DEBUG\SQUARE.OBJ|C:\USERS\YURI\DOCUMENTS\SDL_PROJECT\SDL_PROJECT\DEBUG\TICKER.OBJ
/OUT:"C:\USERS\YURI\DOCUMENTS\SDL_PROJECT\DEBUG\SDL_PROJECT.EXE" /INCREMENTAL /NOLOGO /LIBPATH:C:\USERS\YURI\DOCUMENTS\SDL_PROJECT\DEPENDENCIES\SDL2\LIB\X86 /LIBPATH:C:\USERS\YURI\DOCUMENTS\SDL_PROJECT\DEPENDENCIES\GLEW\LIB\RELEASE\WIN32 OPENGL32.LIB GLEW32.LIB GLEW32S.LIB SDL2.LIB SDL2MAIN.LIB KERNEL32.LIB USER32.LIB GDI32.LIB WINSPOOL.LIB COMDLG32.LIB ADVAPI32.LIB SHELL32.LIB OLE32.LIB OLEAUT32.LIB UUID.LIB ODBC32.LIB ODBCCP32.LIB KERNEL32.LIB USER32.LIB GDI32.LIB WINSPOOL.LIB COMDLG32.LIB ADVAPI32.LIB SHELL32.LIB OLE32.LIB OLEAUT32.LIB UUID.LIB ODBC32.LIB ODBCCP32.LIB /MANIFEST /MANIFESTUAC:"level='asInvoker' uiAccess='false'" /manifest:embed /DEBUG:FASTLINK /PDB:"C:\USERS\YURI\DOCUMENTS\SDL_PROJECT\DEBUG\SDL_PROJECT.PDB" /SUBSYSTEM:CONSOLE /TLBID:1 /DYNAMICBASE /NXCOMPAT /IMPLIB:"C:\USERS\YURI\DOCUMENTS\SDL_PROJECT\DEBUG\SDL_PROJECT.LIB" /MACHINE:X86 DEBUG\MAIN.OBJ
DEBUG\MAINGAME.OBJ
DEBUG\SQUARE.OBJ
DEBUG\TICKER.OBJ
^C:\PROJECTS\SDL_PROJECT\SDL_PROJECT\DEBUG\GAMEOBJECT.OBJ|C:\PROJECTS\SDL_PROJECT\SDL_PROJECT\DEBUG\MAIN.OBJ|C:\PROJECTS\SDL_PROJECT\SDL_PROJECT\DEBUG\MAINGAME.OBJ|C:\PROJECTS\SDL_PROJECT\SDL_PROJECT\DEBUG\SQUARE.OBJ|C:\PROJECTS\SDL_PROJECT\SDL_PROJECT\DEBUG\TICKER.OBJ
/OUT:"C:\PROJECTS\SDL_PROJECT\DEBUG\SDL_PROJECT.EXE" /INCREMENTAL /NOLOGO /LIBPATH:C:\PROJECTS\SDL_PROJECT\DEPENDENCIES\SDL2_TTF\LIB\X86 /LIBPATH:C:\PROJECTS\SDL_PROJECT\DEPENDENCIES\SDL2\LIB\X86 /LIBPATH:C:\PROJECTS\SDL_PROJECT\DEPENDENCIES\GLEW\LIB\RELEASE\WIN32 SDL2_TTF.LIB OPENGL32.LIB GLEW32.LIB GLEW32S.LIB SDL2.LIB SDL2MAIN.LIB KERNEL32.LIB USER32.LIB GDI32.LIB WINSPOOL.LIB COMDLG32.LIB ADVAPI32.LIB SHELL32.LIB OLE32.LIB OLEAUT32.LIB UUID.LIB ODBC32.LIB ODBCCP32.LIB /MANIFEST /MANIFESTUAC:"level='asInvoker' uiAccess='false'" /manifest:embed /DEBUG:FASTLINK /PDB:"C:\PROJECTS\SDL_PROJECT\DEBUG\SDL_PROJECT.PDB" /SUBSYSTEM:CONSOLE /TLBID:1 /DYNAMICBASE /NXCOMPAT /IMPLIB:"C:\PROJECTS\SDL_PROJECT\DEBUG\SDL_PROJECT.LIB" /MACHINE:X86 DEBUG\GAMEOBJECT.OBJ
DEBUG\MAIN.OBJ
DEBUG\MAINGAME.OBJ
DEBUG\SQUARE.OBJ
DEBUG\TICKER.OBJ
